{
    "name": "Module.Inspector.Editor",
    "rootNamespace": "Module.Inspector.Editor",
    "references": [
        "GUID:a58be6d007e5e434ebc9bf7f902990a7"
    ],
    "includePlatforms": [
        "Editor"
    ],
    "excludePlatforms": [],
    "allowUnsafeCode": false,
    "overrideReferences": false,
    "precompiledReferences": [],
    "autoReferenced": true,
    "defineConstraints": [],
    "versionDefines": [],
    "noEngineReferences": false
}